Programming languages history
…
We want to investigate what are the most used programming languages over the years. To do so, we look at questions and answers posted on https://stackoverflow.com/. We will use a dataset containing observations for each tag in each year.

First look at data

We load the tidyverse library

library(tidyverse)

and then we load the dataset and give a first look to the data

by_tag_year <- read_csv("by_tag_year.csv")
by_tag_year

# A tibble: 40,518 × 4
    year tag           number year_total
   <dbl> <chr>          <dbl>      <dbl>
 1  2008 .htaccess         54      58390
 2  2008 .net            5910      58390
 3  2008 .net-2.0         289      58390
 4  2008 .net-3.5         319      58390
 5  2008 .net-4.0           6      58390
 6  2008 .net-assembly      3      58390
 7  2008 .net-core          1      58390
 8  2008 2d                42      58390
 9  2008 32-bit            19      58390
10  2008 32bit-64bit        4      58390
# … with 40,508 more rows

Along with year and tag, we have two other variables, number and year_total. The first one counts the number of questions posted with the tag, and the second one is the total number of questions in the year.

Tag percentage

We want to look at the percentage of tag questions over total ones (per year)

by_tag_year_perc <- by_tag_year |> 
  mutate(
    percentage = round(number /year_total * 100, 2)
  )
by_tag_year_perc

# A tibble: 40,518 × 5
    year tag           number year_total percentage
   <dbl> <chr>          <dbl>      <dbl>      <dbl>
 1  2008 .htaccess         54      58390       0.09
 2  2008 .net            5910      58390      10.1 
 3  2008 .net-2.0         289      58390       0.49
 4  2008 .net-3.5         319      58390       0.55
 5  2008 .net-4.0           6      58390       0.01
 6  2008 .net-assembly      3      58390       0.01
 7  2008 .net-core          1      58390       0   
 8  2008 2d                42      58390       0.07
 9  2008 32-bit            19      58390       0.03
10  2008 32bit-64bit        4      58390       0.01
# … with 40,508 more rows
…
We can see that the most used tags are c# from 2008 to 2011 and javascript from 2013 to 2018, while 2012 winner was java.

Most used programming languages

We can expand our analysis by considering the top 3 languages for each year

top_three <- by_tag_year_perc |> 
  group_by(year) |> 
  arrange(desc(percentage)) |> 
  filter(row_number() %in% c(1,2,3)) |> 
  arrange(year)
top_three

# A tibble: 33 × 5
# Groups:   year [11]
    year tag   number year_total percentage
   <dbl> <chr>  <dbl>      <dbl>      <dbl>
 1  2008 c#      7473      58390      12.8 
 2  2008 .net    5910      58390      10.1 
 3  2008 java    4315      58390       7.39
 4  2009 c#     46044     343868      13.4 
 5  2009 java   24023     343868       6.99
 6  2009 .net   23076     343868       6.71
 7  2010 c#     75501     694391      10.9 
 8  2010 java   54519     694391       7.85
 9  2010 php    51790     694391       7.46
10  2011 c#    113408    1200551       9.45
# … with 23 more rows
…
